mission,mission dataset,,,,,,
mission,mission name,mission alternateName,,,,,
mission,mission people,mission people name,mission people alternateName,,,,
mission,mission people,mission people affiliation,mission people affiliation url,,,,
mission,mission people,mission people address,,,,,
mission,mission people,mission people email,,,,,
mission,mission people,mission people jobTitle,,,,,
mission,mission people,mission people telephone,,,,,
mission,mission people,mission people url,,,,,
mission,spacecraft,spacecraft name,spacecraft alternateName,,,,
mission,spacecraft,spacecraft type,,,,,
mission,spacecraft,spacecraft communications,comm equipment,comm equipment type,,,
mission,spacecraft,spacecraft communications,comm equipment,comm equipment software,,,
mission,spacecraft,spacecraft communications,comm equipment,comm equipment band,,,
mission,spacecraft,spacecraft communications,comm equipment,comm equipment baud rate,,,
mission,spacecraft,spacecraft communications,comm equipment,comm equipment brand,,,
mission,spacecraft,spacecraft communications,comm equipment,comm equipment model,,,
mission,spacecraft,spacecraft communications,comm equipment,comm equipment serialNumber,,,
mission,spacecraft,spacecraft communications,comm equipment,comm equipment citation,,,
mission,spacecraft,spacecraft communications,comm equipment,comm equipment created,,,
mission,spacecraft,spacecraft communications,comm equipment,demodData,demodData origin,,
mission,spacecraft,spacecraft communications,comm equipment,demodData,demodData groundStation,demodData groundStation latitude,
mission,spacecraft,spacecraft communications,comm equipment,demodData,demodData groundStation,demodData groundStation longitude,
mission,spacecraft,spacecraft communications,comm equipment,demodData,demodData groundStation,demodData groundStation name,
mission,spacecraft,spacecraft communications,comm equipment,demodData,demodData observer,demodData observer name,demodData observer alternateName
mission,spacecraft,spacecraft communications,comm equipment,demodData,demodData observer,demodData observer address,
mission,spacecraft,spacecraft communications,comm equipment,demodData,demodData observer,demodData observer affiliation,demodData observer affiliation url
mission,spacecraft,spacecraft communications,comm equipment,demodData,demodData observer,demodData observer email,
mission,spacecraft,spacecraft communications,comm equipment,demodData,demodData observer,demodData observer jobTitle,
mission,spacecraft,spacecraft communications,comm equipment,demodData,demodData observer,demodData observer telephone,
mission,spacecraft,spacecraft communications,comm equipment,demodData,demodData observer,demodData observer url,
mission,spacecraft,spacecraft communications,comm equipment,demodData,demodData payloadFrame,,
mission,spacecraft,spacecraft communications,comm equipment,downlinkDrift,,,
mission,spacecraft,spacecraft communications,comm equipment,downlinkHigh,,,
mission,spacecraft,spacecraft communications,comm equipment,downlinkLow,,,
mission,spacecraft,spacecraft communications,comm equipment,uplinkDrift,,,
mission,spacecraft,spacecraft communications,comm equipment,uplinkHigh,,,
mission,spacecraft,spacecraft communications,comm equipment,uplinkLow,,,
mission,spacecraft,spacecraft communications,comm equipment,comm equipment invert,,,
mission,spacecraft,spacecraft communications,comm equipment,comm equipment mode,,,
mission,spacecraft,spacecraft communications,comm equipment,payloadTelemetry,payloadTelemetry decoder,,
mission,spacecraft,spacecraft communications,comm equipment,payloadTelemetry,payloadTelemetry name,,
mission,spacecraft,spacecraft communications,comm equipment,payloadTelemetry,payloadTelemetry schema,,
mission,spacecraft,spacecraft communications,comm equipment,comm equipment twtaPower,,,
mission,spacecraft,spacecraft communications,comm equipment,comm equipment title,,,
mission,spacecraft,spacecraft navigation,navigation equipment,nav equipment software,,,
mission,spacecraft,spacecraft navigation,navigation equipment,nav orbitalParam,nav orbitalParam apogee,,
mission,spacecraft,spacecraft navigation,navigation equipment,nav orbitalParam,nav orbitalParam perigee,,
mission,spacecraft,spacecraft navigation,navigation equipment,nav orbitalParam,nav orbitalParam eccentricity,,
mission,spacecraft,spacecraft navigation,navigation equipment,nav orbitalParam,nav orbitalParam epoch,,
mission,spacecraft,spacecraft navigation,navigation equipment,nav orbitalParam,nav orbitalParam inclination,,
mission,spacecraft,spacecraft navigation,navigation equipment,nav orbitalParam,nav orbitalParam meanMotion,,
mission,spacecraft,spacecraft navigation,navigation equipment,nav orbitalParam,nav orbitalParam period,,
mission,spacecraft,spacecraft navigation,navigation equipment,nav orbitalParam,nav orbitalParam RAAN,,
mission,spacecraft,spacecraft navigation,navigation equipment,nav orbitalParam,nav orbitalParam RCS,,
mission,spacecraft,spacecraft navigation,navigation equipment,nav orbitalParam,nav orbitalParam regime,,
mission,spacecraft,spacecraft navigation,navigation equipment,nav orbitalParam,nav orbitalParam semiMajorAxis,,
mission,spacecraft,spacecraft navigation,spacecraft tle,spacecraft tle_1,spacecraft tle_1_source,,
mission,spacecraft,spacecraft navigation,spacecraft tle,spacecraft tle_2,spacecraft tle_2_source,,
mission,spacecraft,spacecraft navigation,spacecraft referenceSystem,,,,
mission,spacecraft,spacecraft payload,payload instrument,,,,
mission,spacecraft,spacecraft image,,,,,
mission,spacecraft,spacecraft dimensions,,,,,
mission,spacecraft,spacecraft bus,,,,,
mission,spacecraft,spacecraft missionStart,missionStart launchDate,,,,
mission,spacecraft,spacecraft missionStart,missionStart launchMass,,,,
mission,spacecraft,spacecraft missionStart,missionStart launchSite,launchSite address,,,
mission,spacecraft,spacecraft missionStart,missionStart launchSite,launchSite name,,,
mission,spacecraft,spacecraft missionStart,missionStart launchSite,launchSite pad,,,
mission,spacecraft,spacecraft missionStart,missionStart launchSite,launchSite url,,,
mission,spacecraft,spacecraft missionStart,missionStart launchVehicle,launchVehicle name,,,
mission,spacecraft,spacecraft missionStart,missionStart launchVehicle,,,,
mission,spacecraft,spacecraft missionStart,missionStart LSP,LSP name,,,
mission,spacecraft,spacecraft missionStart,missionStart LSP,LSP address,,,
mission,spacecraft,spacecraft missionStart,missionStart LSP,LSP url,,,
mission,spacecraft,spacecraft missionStart,missionStart LSP,LSP affiliation,LSP affiliation url,,
mission,spacecraft,spacecraft missionEnd,missionEnd decayDate,,,,
mission,spacecraft,spacecraft missionEnd,missionEnd disposal,,,,
mission,spacecraft,spacecraft missionEnd,missionEnd lastContact,,,,
mission,spacecraft,spacecraft missionEnd,missionEnd status,,,,
mission,spacecraft,spacecraft nation,,,,,
mission,spacecraft,spacecraft power,,,,,