level 1,level 2,level 3,level 4,level 5,level 6,level 7,level 8,level 9,level 10,level 11,level 12,level 13
groundStation,clientVersion,,,,,,,,,,,
groundStation,referencePlatform,,,,,,,,,,,
groundStation,groundStationEquipment,,,,,,,,,,,
groundStation,groundStationEquipment,groundStation antenna,,,,,,,,,,
groundStation,groundStationEquipment,groundStation antenna,groundStation antenna band,,,,,,,,,
groundStation,groundStationEquipment,groundStation antenna,groundStation antenna frequency,,,,,,,,,
groundStation,groundStationEquipment,groundStation antenna,groundStation antenna maxFrequency,,,,,,,,,
groundStation,groundStationEquipment,groundStation antenna,groundStation antenna brand,,,,,,,,,
groundStation,groundStationEquipment,groundStation antenna,groundStation antenna model,,,,,,,,,
groundStation,groundStationEquipment,groundStation antenna,groundStation antenna serialNumber,,,,,,,,,
groundStation,groundStationEquipment,groundStation antenna,groundStation antenna type,,,,,,,,,
groundStation,groundStationEquipment,groundStation receiver,groundStation receiver band,,,,,,,,,
groundStation,groundStationEquipment,groundStation receiver,groundStation receiver gain,,,,,,,,,
groundStation,groundStationEquipment,groundStation receiver,groundStation receiver filter,,,,,,,,,
groundStation,groundStationEquipment,groundStation receiver,groundStation receiver LNA,groundStation receiver LNA brand,,,,,,,,
groundStation,groundStationEquipment,groundStation receiver,groundStation receiver LNA,groundStation receiver LNA model,,,,,,,,
groundStation,groundStationEquipment,groundStation receiver,groundStation receiver brand,,,,,,,,,
groundStation,groundStationEquipment,groundStation receiver,groundStation receiver model,,,,,,,,,
groundStation,groundStationEquipment,groundStation receiver,groundStation receiver serialNumber,,,,,,,,,
groundStation,groundStationEquipment,groundStation receiver,groundStation receiver LNA,groundStation receiver LNA serialNumber,,,,,,,,
groundStation,groundStationEquipment,groundStation transmitter,groundStation transmitter outputPower,,,,,,,,,
groundStation,groundStationEquipment,groundStation transmitter,groundStation transmitter powerAmplifier,groundStation transmitter powerAmplifier outputPower,,,,,,,,
groundStation,groundStationEquipment,groundStation transmitter,groundStation transmitter powerAmplifier,powerAmplifier brand,,,,,,,,
groundStation,groundStationEquipment,groundStation transmitter,groundStation transmitter powerAmplifier,powerAmplifier model,,,,,,,,
groundStation,groundStationEquipment,groundStation transmitter,groundStation transmitter powerAmplifier,powerAmplifier serialNumber,,,,,,,,
groundStation,groundStationEquipment,groundStation transmitter,groundStation transmitter powerAmplifier,powerAmplifier class,,,,,,,,
groundStation,groundStationEquipment,groundStation transmitter,groundStation transmitter brand,,,,,,,,,
groundStation,groundStationEquipment,groundStation transmitter,groundStation transmitter model,,,,,,,,,
groundStation,groundStationEquipment,groundStation transmitter,groundStation transmitter serialNumber,,,,,,,,,
groundStation,groundStationEquipment,groundStation rotator,groundStation rotator plasticParts,,,,,,,,,
groundStation,groundStationEquipment,groundStation rotator,groundStation rotator nonPrintedParts,,,,,,,,,
groundStation,groundStationEquipment,groundStation rotator,groundStation rotator cost,,,,,,,,,
groundStation,groundStationEquipment,groundStation rotator,groundStation rotator controllerElectronics,,,,,,,,,
groundStation,groundStationEquipment,groundStation rotator,groundStation rotator type,,,,,,,,,
groundStation,groundStationEquipment,groundStation rotator,groundStation rotator motors,,,,,,,,,
groundStation,groundStationEquipment,groundStation rotator,groundStation rotator frameMaterial,,,,,,,,,
groundStation,groundStationEquipment,groundStation rotator,groundStation rotator speed,,,,,,,,,
groundStation,groundStationEquipment,groundStation rotator,groundStation rotator torque,,,,,,,,,
groundStation,groundStationEquipment,groundStation rotator,groundStation rotator brakeTorque,,,,,,,,,
groundStation,groundStationEquipment,groundStation rotator,groundStation rotator dimensions,groundStation rotator height,,,,,,,,
groundStation,groundStationEquipment,groundStation rotator,groundStation rotator dimensions,groundStation rotator width,,,,,,,,
groundStation,groundStationEquipment,groundStation rotator,groundStation rotator dimensions,groundStation rotator depth,,,,,,,,
groundStation,groundStationEquipment,groundStation rotator,groundStation rotator weight,,,,,,,,,
groundStation,groundStationEquipment,groundStation rotator,groundStation rotator brand,,,,,,,,,
groundStation,groundStationEquipment,groundStation rotator,groundStation rotator model,,,,,,,,,
groundStation,groundStationEquipment,groundStation rotator,groundStation rotator serialNumber,,,,,,,,,
groundStation,groundStationEquipment,groundStation rotator,groundStation rotator releaseInformation,groundStation rotator releaseStatus,,,,,,,,
groundStation,groundStationEquipment,groundStation rotator,groundStation rotator releaseInformation,groundStation rotator latestRelease,,,,,,,,
groundStation,groundStationEquipment,groundStation rotator,groundStation rotator releaseInformation,groundStation rotator repository,,,,,,,,
groundStation,groundStationEquipment,groundStation rotator,groundStation rotator releaseInformation,groundStation rotator documentation,,,,,,,,
groundStation,groundStation position,groundStation position latitude,,,,,,,,,,
groundStation,groundStation position,groundStation position longitude,,,,,,,,,,
groundStation,groundStation position,groundStation position elevation,,,,,,,,,,
groundStation,groundStation position,groundStation position qthLocator,,,,,,,,,,
groundStation,groundStation name,,,,,,,,,,,
groundStation,groundStation alternateName,,,,,,,,,,,
groundStation,groundStation created,,,,,,,,,,,
groundStation,groundStation lastSeen,,,,,,,,,,,
groundStation,groundStation description,,,,,,,,,,,
groundStation,groundStation image,,,,,,,,,,,
groundStation,groundStation status,,,,,,,,,,,
groundStation,groundStation testing,,,,,,,,,,,
groundStation,groundStation owner,groundStation owner url,,,,,,,,,,
groundStation,groundStation owner,groundStation owner name,,,,,,,,,,
groundStation,groundStation owner,groundStation owner alternateName,,,,,,,,,,
groundStation,groundStation owner,groundStation owner jobTitle,,,,,,,,,,
groundStation,groundStation owner,groundStation owner affiliation,groundStation owner affiliation url,,,,,,,,,
groundStation,groundStation owner,groundStation owner affiliation,groundStation owner affiliation name,,,,,,,,,
groundStation,groundStation owner,groundStation owner email,,,,,,,,,,
groundStation,groundStation owner,groundStation owner telephone,,,,,,,,,,
groundStation,groundStation owner,groundStation owner address,,,,,,,,,,
groundStationNetwork,,,,,,,,,,,,