level 1,level 2,level 3,level 4,level 5,level 6,level 7,level 8,level 9,level 10,level 11
spacecraft,spacecraft name,,,,,,,,,
spacecraft,spacecraft alternateName,,,,,,,,,
spacecraft,spacecraft nation,,,,,,,,,
spacecraft,spacecraft image,,,,,,,,,
spacecraft,spacecraft type,,,,,,,,,
spacecraft,spacecraft dimensions,spacecraft height,,,,,,,,
spacecraft,spacecraft dimensions,spacecraft width,,,,,,,,
spacecraft,spacecraft dimensions,spacecraft depth,,,,,,,,
spacecraft,spacecraft communication,spacecraft link parameters,uplink,uplink high,,,,,,
spacecraft,spacecraft communication,spacecraft link parameters,uplink,uplink low,,,,,,
spacecraft,spacecraft communication,spacecraft link parameters,uplink,uplink drift,,,,,,
spacecraft,spacecraft communication,spacecraft link parameters,downlink,downlink high,,,,,,
spacecraft,spacecraft communication,spacecraft link parameters,downlink,downlink low,,,,,,
spacecraft,spacecraft communication,spacecraft link parameters,downlink,downlink drift,,,,,,
spacecraft,spacecraft communication,payloadTelemetry,payloadTelemetry name,,,,,,,
spacecraft,spacecraft communication,payloadTelemetry,payloadTelemetry schema,,,,,,,
spacecraft,spacecraft communication,payloadTelemetry,payloadTelemetry decoder,,,,,,,
spacecraft,spacecraft communication,demodData,demodData observer,,,,,,,
spacecraft,spacecraft communication,demodData,demodData groundStation,,,,,,,
spacecraft,spacecraft communication,demodData,demodData payloadFrame,,,,,,,
spacecraft,spacecraft communication,demodData,demodData origin,,,,,,,
spacecraft,spacecraft orbitography,orbitalElements,orbitalElements eccentricity,,,,,,,
spacecraft,spacecraft orbitography,orbitalElements,orbitalElements semiMajorAxis,,,,,,,
spacecraft,spacecraft orbitography,orbitalElements,orbitalElements inclination,,,,,,,
spacecraft,spacecraft orbitography,orbitalElements,orbitalElements RAAN,,,,,,,
spacecraft,spacecraft orbitography,orbitalElements,orbitalElements periapsis,,,,,,,
spacecraft,spacecraft orbitography,orbitalElements,orbitalElements apoapsis,,,,,,,
spacecraft,spacecraft orbitography,orbitalElements,orbitalElements trueAnomaly,,,,,,,
spacecraft,spacecraft orbitography,orbitalElements,orbitalElements meanAnomaly,,,,,,,
spacecraft,spacecraft orbitography,orbitalElements,orbitalElements meanMotion,,,,,,,
spacecraft,spacecraft orbitography,orbitalElements,orbitalElements period,,,,,,,
spacecraft,spacecraft orbitography,orbitalElements,orbitalElements epoch,,,,,,,
spacecraft,spacecraft orbitography,orbitalElements,orbitalElements RCS,,,,,,,
spacecraft,spacecraft orbitography,orbitalElements,orbitalElements regime,,,,,,,
spacecraft,spacecraft orbitography,orbitalElements,orbitalElements referenceDirection,,,,,,,
spacecraft,spacecraft orbitography,orbitalElements,orbitalElements plane of reference,,,,,,,
spacecraft,spacecraft orbitography,referenceSystem,tle0,,,,,,,
spacecraft,spacecraft orbitography,referenceSystem,tle1,,,,,,,
spacecraft,spacecraft orbitography,referenceSystem,tle2,,,,,,,
spacecraft,spacecraft orbitography,referenceSystem,tleSource,,,,,,,
spacecraft,spacecraft payload,spacecraft instruments,,,,,,,,
spacecraft,spacecraft payload,spacecraft platform,spacecraft structure,,,,,,,
spacecraft,spacecraft payload,spacecraft platform,electrical power system,solarArray,solarArray power,,,,,
spacecraft,spacecraft payload,spacecraft platform,electrical power system,battery,battery power,,,,,
spacecraft,spacecraft payload,spacecraft platform,electrical power system,PCDU,PCDU power,,,,,
spacecraft,spacecraft payload,spacecraft platform,spacecraft communicationEquipment,communicationEquipment type,communicationEquipment title,,,,,
spacecraft,spacecraft payload,spacecraft platform,spacecraft communicationEquipment,communicationEquipment type,communicationEquipment band,,,,,
spacecraft,spacecraft payload,spacecraft platform,spacecraft communicationEquipment,communicationEquipment type,communicationEquipment invert,,,,,
spacecraft,spacecraft payload,spacecraft platform,spacecraft communicationEquipment,communicationEquipment type,communicationEquipment baudRate,,,,,
spacecraft,spacecraft payload,spacecraft platform,spacecraft communicationEquipment,communicationEquipment type,communicationEquipment mode,,,,,
spacecraft,spacecraft payload,spacecraft platform,spacecraft communicationEquipment,communicationEquipment type,communicationEquipment created,,,,,
spacecraft,spacecraft payload,spacecraft platform,spacecraft communicationEquipment,communicationEquipment type,communicationEquipment citation,,,,,
spacecraft,spacecraft payload,spacecraft platform,spacecraft communicationEquipment,communicationEquipment type,communicationEquipment twtaPower,,,,,
spacecraft,spacecraft payload,spacecraft platform,spacecraft communicationEquipment,communicationEquipment type,communicationEquipment brand,,,,,
spacecraft,spacecraft payload,spacecraft platform,spacecraft communicationEquipment,communicationEquipment type,communicationEquipment model,,,,,
spacecraft,spacecraft payload,spacecraft platform,spacecraft communicationEquipment,communicationEquipment type,communicationEquipment serialNumber,,,,,
spacecraft,spacecraft payload,spacecraft platform,spacecraft thermalEquipment,,,,,,,
spacecraft,spacecraft payload,spacecraft platform,spacecraft processing,,,,,,,
spacecraft,spacecraft payload,spacecraft platform,spacecraft altitudeControl,,,,,,,
spacecraft,spacecraft payload,spacecraft platform,spacecraft propulsion,,,,,,,
spacecraft,spacecraft payload,spacecraft platform,spacecraft mechanism,,,,,,,
spacecraft,spacecraft payload,spacecraft platform,spacecraft firmware,,,,,,,
spacecraft,spacecraft payload,spacecraft platform,spacecraft supportEquipment,spacecraft EGSE,,,,,,
spacecraft,spacecraft payload,spacecraft platform,spacecraft supportEquipment,spacecraft MGSE,,,,,,
spacecraft,spacecraft mission,mission name,,,,,,,,
spacecraft,spacecraft mission,mission alternateName,,,,,,,,
spacecraft,spacecraft mission,mission launchSegment,launchDate,,,,,,,
spacecraft,spacecraft mission,mission launchSegment,launchVehicle,launchVehicle name,,,,,,
spacecraft,spacecraft mission,mission launchSegment,launchSite,launchSite URL,,,,,,
spacecraft,spacecraft mission,mission launchSegment,launchSite,launchSite name,,,,,,
spacecraft,spacecraft mission,mission launchSegment,launchSite,launchSite pad,,,,,,
spacecraft,spacecraft mission,mission launchSegment,launchSite,luanchSite address,,,,,,
spacecraft,spacecraft mission,mission launchSegment,launchMass,,,,,,,
spacecraft,spacecraft mission,mission launchSegment,launchServiceProvider,LSP name,,,,,,
spacecraft,spacecraft mission,mission launchSegment,launchServiceProvider,LSP alternateName,,,,,,
spacecraft,spacecraft mission,mission launchSegment,launchServiceProvider,LSP affiliation,,,,,,
spacecraft,spacecraft mission,mission launchSegment,launchServiceProvider,LSP URL,,,,,,
spacecraft,spacecraft mission,missionEnd,decayDate,,,,,,,
spacecraft,spacecraft mission,missionEnd,disposal,,,,,,,
spacecraft,spacecraft mission,missionEnd,status,,,,,,,
spacecraft,spacecraft mission,missionEnd,lastContact,,,,,,,
spacecraft,spacecraft mission,missionEnd,lessonsLearned,,,,,,,
spacecraft,spacecraft mission,missionPerson,missionPerson URL,,,,,,,
spacecraft,spacecraft mission,missionPerson,missionPerson name,,,,,,,
spacecraft,spacecraft mission,missionPerson,missionPerson alternateName,,,,,,,
spacecraft,spacecraft mission,missionPerson,missionPerson jobTitle,,,,,,,
spacecraft,spacecraft mission,missionPerson,missionPerson affiliation,missionPerson affiliation URL,,,,,,
spacecraft,spacecraft mission,missionPerson,missionPerson affiliation,missionPerson affiliation name,,,,,,
spacecraft,spacecraft mission,missionPerson,missionPerson email,,,,,,,
spacecraft,spacecraft mission,missionPerson,missionPerson telephone,,,,,,,
spacecraft,spacecraft mission,missionPerson,missionPerson address,,,,,,,