level 1,level 2,level 3,level 4,level 5,level 6,level 7,level 8,level 9,level 10
spacecraft,spacecraft name,spacecraft alternateName,,,,,,,
spacecraft,spacecraft identifier,spacecraft identifier propertyID,,,,,,,
spacecraft,spacecraft type,,,,,,,,
spacecraft,spacecraft communications,comm equipment,comm equipment identifier,comm equipment identifier propertyID,,,,,
spacecraft,spacecraft communications,comm equipment,comm equipment identifier,comm equipment type,,,,,
spacecraft,spacecraft communications,comm equipment,comm equipment identifier,comm equipment software,,,,,
spacecraft,spacecraft communications,comm equipment,comm equipment identifier,comm equipment band,,,,,
spacecraft,spacecraft communications,comm equipment,comm equipment identifier,comm equipment baud rate,comm equipment baud rate unitCode,,,,
spacecraft,spacecraft communications,comm equipment,comm equipment identifier,comm equipment brand,,,,,
spacecraft,spacecraft communications,comm equipment,comm equipment identifier,comm equipment model,,,,,
spacecraft,spacecraft communications,comm equipment,comm equipment identifier,comm equipment serialNumber,,,,,
spacecraft,spacecraft communications,comm equipment,comm equipment identifier,comm equipment citation,,,,,
spacecraft,spacecraft communications,comm equipment,comm equipment identifier,comm equipment created,,,,,
spacecraft,spacecraft communications,comm equipment,comm equipment identifier,demodData,demodData origin,,,,
spacecraft,spacecraft communications,comm equipment,comm equipment identifier,demodData,demodData groundStation,demodData groundStation latitude,,,
spacecraft,spacecraft communications,comm equipment,comm equipment identifier,demodData,demodData groundStation,demodData groundStation longitude,,,
spacecraft,spacecraft communications,comm equipment,comm equipment identifier,demodData,demodData groundStation,demodData groundStation name,,,
spacecraft,spacecraft communications,comm equipment,comm equipment identifier,demodData,demodData identifier,demodData identifier propertyID,,,
spacecraft,spacecraft communications,comm equipment,comm equipment identifier,demodData,demodData observer,demodData observer name,demodData observer alternateName,,
spacecraft,spacecraft communications,comm equipment,comm equipment identifier,demodData,demodData observer,demodData observer address,,,
spacecraft,spacecraft communications,comm equipment,comm equipment identifier,demodData,demodData observer,demodData observer affiliation,demodData observer affiliation url,,
spacecraft,spacecraft communications,comm equipment,comm equipment identifier,demodData,demodData observer,demodData observer email,,,
spacecraft,spacecraft communications,comm equipment,comm equipment identifier,demodData,demodData observer,demodData observer identifier,demodData observer identifier propertyID,,
spacecraft,spacecraft communications,comm equipment,comm equipment identifier,demodData,demodData observer,demodData observer jobTitle,,,
spacecraft,spacecraft communications,comm equipment,comm equipment identifier,demodData,demodData observer,demodData observer telephone,,,
spacecraft,spacecraft communications,comm equipment,comm equipment identifier,demodData,demodData observer,demodData observer url,,,
spacecraft,spacecraft communications,comm equipment,comm equipment identifier,demodData,demodData payloadFrame,,,,
spacecraft,spacecraft communications,comm equipment,comm equipment identifier,downlinkDrift,downlinkDrift unitCode,,,,
spacecraft,spacecraft communications,comm equipment,comm equipment identifier,downlinkHigh,downlinkHigh unitCode,,,,
spacecraft,spacecraft communications,comm equipment,comm equipment identifier,downlinkLow,downlinkLow unitCode,,,,
spacecraft,spacecraft communications,comm equipment,comm equipment identifier,uplinkDrift,uplinkDrift unitCode,,,,
spacecraft,spacecraft communications,comm equipment,comm equipment identifier,uplinkHigh,uplinkHigh unitCode,,,,
spacecraft,spacecraft communications,comm equipment,comm equipment identifier,uplinkLow,uplinkLow unitCode,,,,
spacecraft,spacecraft communications,comm equipment,comm equipment identifier,comm equipment invert,,,,,
spacecraft,spacecraft communications,comm equipment,comm equipment identifier,comm equipment mode,comm equipment mode identifier,comm equipment mode identifier propertyID,,,
spacecraft,spacecraft communications,comm equipment,comm equipment identifier,payloadTelemetry,payloadTelemetry decoder,payloadTelemetry decoder identifier,payloadTelemetry decoder identifier propertyID,,
spacecraft,spacecraft communications,comm equipment,comm equipment identifier,payloadTelemetry,payloadTelemetry identifier,payloadTelemetry identifier propertyID,,,
spacecraft,spacecraft communications,comm equipment,comm equipment identifier,payloadTelemetry,payloadTelemetry name,,,,
spacecraft,spacecraft communications,comm equipment,comm equipment identifier,payloadTelemetry,payloadTelemetry schema,,,,
spacecraft,spacecraft communications,comm equipment,comm equipment identifier,comm equipment twtaPower,twtaPower unitCode,,,,
spacecraft,spacecraft communications,comm equipment,comm equipment identifier,comm equipment title,,,,,
spacecraft,spacecraft navigation,navigation equipment,nav equipment identifier,nav equipment identifier propertyID,,,,,
spacecraft,spacecraft navigation,navigation equipment,nav equipment identifier,nav equipment software,,,,,
spacecraft,spacecraft navigation,navigation equipment,nav equipment identifier,nav orbitalParam,nav orbitalParam apogee,nav orbitalParam apogee unitCode,,,
spacecraft,spacecraft navigation,navigation equipment,nav equipment identifier,nav orbitalParam,nav orbitalParam perigee,nav orbitalParam perigee unitCode,,,
spacecraft,spacecraft navigation,navigation equipment,nav equipment identifier,nav orbitalParam,nav orbitalParam eccentricity,nav orbitalParam eccentricity unitCode,,,
spacecraft,spacecraft navigation,navigation equipment,nav equipment identifier,nav orbitalParam,nav orbitalParam epoch,nav orbitalParam unitCode,,,
spacecraft,spacecraft navigation,navigation equipment,nav equipment identifier,nav orbitalParam,nav orbitalParam inclination,nav orbitalParam inclination unitCode,,,
spacecraft,spacecraft navigation,navigation equipment,nav equipment identifier,nav orbitalParam,nav orbitalParam meanMotion,nav orbitalParam meanMotion unitCode,,,
spacecraft,spacecraft navigation,navigation equipment,nav equipment identifier,nav orbitalParam,nav orbitalParam period,nav orbitalParam period unitCode,,,
spacecraft,spacecraft navigation,navigation equipment,nav equipment identifier,nav orbitalParam,nav orbitalParam RAAN,nav orbitalParam RAAN unitCode,,,
spacecraft,spacecraft navigation,navigation equipment,nav equipment identifier,nav orbitalParam,nav orbitalParam RCS,nav orbitalParam RCS unitCode,,,
spacecraft,spacecraft navigation,navigation equipment,nav equipment identifier,nav orbitalParam,nav orbitalParam regime,nav orbitalParam regime unitCode,,,
spacecraft,spacecraft navigation,navigation equipment,nav equipment identifier,nav orbitalParam,nav orbitalParam semiMajorAxis,nav orbitalParam semiMajorAxis unitCode,,,
spacecraft,spacecraft navigation,spacecraft tle,spacecraft tle_1,spacecraft tle_1_source,tle_1_source identifier,tle_1_source identifier propertyID,,,
spacecraft,spacecraft navigation,spacecraft tle,spacecraft tle_2,spacecraft tle_2_source,tle_2_source identifier,tle_2_source identifier propertyID,,,
spacecraft,spacecraft navigation,spacecraft referenceSystem,,,,,,,
spacecraft,spacecraft payload,payload instrument,instrument identifier,instrument identifier propertyID,,,,,
spacecraft,spacecraft image,spacecraft image identifier,spacecraft image identifier propertyID,,,,,,
spacecraft,spacecraft dimensions,spacecraft dimensions unitCode,,,,,,,
spacecraft,spacecraft bus,,,,,,,,
spacecraft,spacecraft missionStart,missionStart launchDate,,,,,,,
spacecraft,spacecraft missionStart,missionStart launchMass,launchMass unitCode,,,,,,
spacecraft,spacecraft missionStart,missionStart launchSite,launchSite address,,,,,,
spacecraft,spacecraft missionStart,missionStart launchSite,launchSite name,,,,,,
spacecraft,spacecraft missionStart,missionStart launchSite,launchSite pad,,,,,,
spacecraft,spacecraft missionStart,missionStart launchSite,launchSite url,,,,,,
spacecraft,spacecraft missionStart,missionStart launchVehicle,launchVehicle name,,,,,,
spacecraft,spacecraft missionStart,missionStart launchVehicle,launchVehicle identifier,launchVehicle identifier propertyID,,,,,
spacecraft,spacecraft missionStart,missionStart LSP,LSP name,,,,,,
spacecraft,spacecraft missionStart,missionStart LSP,LSP address,,,,,,
spacecraft,spacecraft missionStart,missionStart LSP,LSP url,,,,,,
spacecraft,spacecraft missionStart,missionStart LSP,LSP affiliation,LSP affiliation url,,,,,
spacecraft,spacecraft missionEnd,missionEnd decayDate,,,,,,,
spacecraft,spacecraft missionEnd,missionEnd disposal,,,,,,,
spacecraft,spacecraft missionEnd,missionEnd lastContact,,,,,,,
spacecraft,spacecraft missionEnd,missionEnd status,,,,,,,
spacecraft,spacecraft nation,,,,,,,,
spacecraft,spacecraft power,spacecraft power unitCode,,,,,,,